{
    "development" :{
        "PORT" : "3000",
        "APP" : "SISHOT-PARIS",
        "PUBLIC" : "/public",
        "VIEWS" : "/views",
        "MODELS" : "/models",
        "CONTROL" : "/controllers",
        "DB": "mysql"
    }
}